<svg xmlns="http://www.w3.org/2000/svg" viewBox="0 0 48 48">
  <g fill="none">
    <path fill="red" d="M0 24C0 10.7451654 10.7451654 0 24 0s24 10.7451654 24 24-10.7451654 24-24 24S0 37.2548346 0 24z"/>
    <path fill="#ffffff" d="M36.2650182 18.0732194c-.2944-1.1310065-1.1618909-2.0216259-2.2634182-2.3238904C32.0053818 15.2 24 15.2 24 15.2s-8.0053818 0-10.0017454.549329c-1.1015273.3022645-1.9690182 1.1928839-2.2634182 2.3238904C11.2 20.1230387 11.2 24.4 11.2 24.4s0 4.2768129.5348364 6.3267806c.2944 1.1310065 1.1618909 2.0216259 2.2634182 2.3240388C15.9946182 33.6 24 33.6 24 33.6s8.0053818 0 10.0016-.5491806c1.1015273-.3024129 1.9690182-1.1930323 2.2634182-2.3240388C36.8 28.6768129 36.8 24.4 36.8 24.4s0-4.2769613-.5349818-6.3267806"/>
    <path fill="red" d="M21.6 28.8v-8l6.4 4.0001529z"/>
  </g>
</svg>
